Date,Open,High,Low,Close,Adj Close,Volume
"Oct 14, 2020","2,278.90","2,304.00","2,268.50","2,281.80","2,281.80","8,808,117"
"Oct 13, 2020","2,230.60","2,285.75","2,225.85","2,280.70","2,280.70","10,666,19"
"Oct 12, 2020","2,235.00","2,255.75","2,226.25","2,237.05","2,237.05","6,565,515"
"Oct 09, 2020","2,235.00","2,253.00","2,217.10","2,233.45","2,233.45","8,558,745"
"Oct 08, 2020","2,259.00","2,268.00","2,222.10","2,239.25","2,239.25","9,727,405"
"Oct 07, 2020","2,235.00","2,309.00","2,220.00","2,257.50","2,257.50","24,538,34"
"Oct 06, 2020","2,225.25","2,233.90","2,201.65","2,210.35","2,210.35","8,497,216"
"Oct 05, 2020","2,244.00","2,249.15","2,206.00","2,212.20","2,212.20","8,732,869"
"Oct 01, 2020","2,263.80","2,263.80","2,214.00","2,225.25","2,225.25","9,591,456"
"Sep 30, 2020","2,260.00","2,267.00","2,225.00","2,234.35","2,234.35","11,290,66"
"Sep 29, 2020","2,225.00","2,264.00","2,216.25","2,245.05","2,245.05","11,926,32"
"Sep 28, 2020","2,227.00","2,238.00","2,207.05","2,216.25","2,216.25","9,076,248"
"Sep 25, 2020","2,189.00","2,212.80","2,167.30","2,201.70","2,201.70","13,095,02"
"Sep 24, 2020","2,207.90","2,226.00","2,176.05","2,181.20","2,181.20","13,764,84"
"Sep 23, 2020","2,260.00","2,276.75","2,205.30","2,230.80","2,230.80","19,839,28"
"Sep 22, 2020","2,277.00","2,277.00","2,201.55","2,211.15","2,211.15","16,056,62"
"Sep 21, 2020","2,300.00","2,336.00","2,247.35","2,255.85","2,255.85","15,519,03"
"Sep 18, 2020","2,314.25","2,319.45","2,276.55","2,305.70","2,305.70","15,264,06"
"Sep 17, 2020","2,320.00","2,333.70","2,291.85","2,298.75","2,298.75","11,919,92"
"Sep 16, 2020","2,320.00","2,369.35","2,310.55","2,324.55","2,324.55","15,668,97"
"Sep 15, 2020","2,311.95","2,325.75","2,288.15","2,318.85","2,318.85","12,542,82"
"Sep 14, 2020","2,325.00","2,360.00","2,282.00","2,302.55","2,302.55","20,335,27"
"Sep 11, 2020","2,312.00","2,337.85","2,287.10","2,319.75","2,319.75","27,445,76"
"Sep 10, 2020","2,183.10","2,344.95","2,175.35","2,314.00","2,314.00","64,750,46"
"Sep 09, 2020","2,085.00","2,167.80","2,081.45","2,161.35","2,161.35","25,525,96"
"Sep 08, 2020","2,092.00","2,121.00","2,080.50","2,107.10","2,107.10","12,643,74"
"Sep 07, 2020","2,084.00","2,105.75","2,044.25","2,082.65","2,082.65","10,119,06"
"Sep 04, 2020","2,083.55","2,096.95","2,072.20","2,077.25","2,077.25","13,141,64"
"Sep 03, 2020","2,128.00","2,138.75","2,103.00","2,112.10","2,112.10","8,577,634"
"Sep 02, 2020","2,092.00","2,138.00","2,085.00","2,128.20","2,128.20","12,437,16"
"Sep 01, 2020","2,100.00","2,122.40","2,062.40","2,087.25","2,087.25","17,821,39"
"Aug 31, 2020","2,174.00","2,174.00","2,060.35","2,080.70","2,080.70","28,648,12"
"Aug 28, 2020","2,120.00","2,132.90","2,106.25","2,116.15","2,116.15","12,537,52"
"Aug 27, 2020","2,148.00","2,150.00","2,103.25","2,110.60","2,110.60","12,961,25"
"Aug 26, 2020","2,085.00","2,147.95","2,047.00","2,137.30","2,137.30","27,630,19"
"Aug 25, 2020","2,106.00","2,111.30","2,078.00","2,082.10","2,082.10","8,947,563"
"Aug 24, 2020","2,091.40","2,104.50","2,070.50","2,095.75","2,095.75","15,098,99"
"Aug 21, 2020","2,118.00","2,122.00","2,077.00","2,081.85","2,081.85","11,667,12"
"Aug 20, 2020","2,120.00","2,123.90","2,088.00","2,097.05","2,097.05","10,401,21"
"Aug 19, 2020","2,141.00","2,154.00","2,121.35","2,131.55","2,131.55","15,731,39"
"Aug 18, 2020","2,085.00","2,134.30","2,082.35","2,118.55","2,118.55","14,097,74"
"Aug 17, 2020","2,105.00","2,105.00","2,070.10","2,091.35","2,091.35","14,296,83"
"Aug 14, 2020","2,122.55","2,157.00","2,089.25","2,113.80","2,113.80","15,333,16"
"Aug 13, 2020","2,128.00","2,138.90","2,110.00","2,122.05","2,122.05","11,459,19"
"Aug 12, 2020","2,121.00","2,145.00","2,106.80","2,127.60","2,127.60","13,967,11"
"Aug 11, 2020","2,134.80","2,160.00","2,100.35","2,133.80","2,133.80","21,611,25"
"Aug 10, 2020","2,159.10","2,165.00","2,108.10","2,119.85","2,119.85","12,441,57"
"Aug 07, 2020","2,129.80","2,157.80","2,120.20","2,146.45","2,146.45","15,222,30"
"Aug 06, 2020","2,157.00","2,167.70","2,107.80","2,134.10","2,134.10","22,762,54"
"Aug 05, 2020","2,169.00","2,196.00","2,118.30","2,126.45","2,126.45","34,404,81"
"Aug 04, 2020","2,020.60","2,167.00","2,000.25","2,150.60","2,150.60","42,476,93"
"Aug 03, 2020","2,051.30","2,057.00","2,003.10","2,009.00","2,009.00","21,559,14"
"Jul 31, 2020","2,114.50","2,129.00","2,052.80","2,067.10","2,067.10","34,593,13"
"Jul 30, 2020","2,099.00","2,139.70","2,072.00","2,108.85","2,108.85","33,623,69"
"Jul 29, 2020","2,177.90","2,182.80","2,070.45","2,096.65","2,096.65","33,534,14"
"Jul 28, 2020","2,156.20","2,194.00","2,150.65","2,177.70","2,177.70","25,435,29"
"Jul 27, 2020","2,178.80","2,198.80","2,127.90","2,156.20","2,156.20","37,060,66"
"Jul 24, 2020","2,058.00","2,163.00","2,057.80","2,146.15","2,146.15","55,655,66"
"Jul 23, 2020","2,003.95","2,079.70","1,991.35","2,057.80","2,057.80","26,921,01"
"Jul 22, 2020","1,983.00","2,010.00","1,960.70","2,004.00","2,004.00","27,584,51"
"Jul 21, 2020","1,939.00","1,977.00","1,936.50","1,971.55","1,971.55","19,463,00"
"Jul 20, 2020","1,917.80","1,932.00","1,899.65","1,919.90","1,919.90","16,887,63"
"Jul 17, 2020","1,845.00","1,920.00","1,838.00","1,911.70","1,911.70","22,948,89"
"Jul 16, 2020","1,847.00","1,869.00","1,812.45","1,843.40","1,843.40","28,133,82"
"Jul 15, 2020","1,937.95","1,978.80","1,798.00","1,844.00","1,844.00","64,457,57"
"Jul 14, 2020","1,934.00","1,941.70","1,887.30","1,917.00","1,917.00","31,073,30"
"Jul 13, 2020","1,903.35","1,947.70","1,900.00","1,935.00","1,935.00","32,124,26"
"Jul 10, 2020","1,828.50","1,884.60","1,824.25","1,878.05","1,878.05","20,195,21"
"Jul 09, 2020","1,809.00","1,835.00","1,786.25","1,824.25","1,824.25","16,807,33"
"Jul 08, 2020","1,824.05","1,834.95","1,790.00","1,798.00","1,798.00","12,093,18"
"Jul 07, 2020","1,860.00","1,864.35","1,806.30","1,823.45","1,823.45","16,239,99"
"Jul 06, 2020","1,805.00","1,858.00","1,792.10","1,851.80","1,851.80","21,697,96"
"Jul 03, 2020","1,779.80","1,793.00","1,768.00","1,787.90","1,787.90","13,583,90"
"Jul 02, 2020","1,743.00","1,767.60","1,735.05","1,760.35","1,760.35","13,286,36"
"Jul 02, 2020",6.5 Divi,dend,,,,
"Jul 01, 2020","1,720.00","1,749.00","1,708.05","1,737.60","1,731.10","13,136,17"
"Jun 30, 2020","1,737.00","1,741.00","1,695.55","1,704.10","1,697.73","13,972,56"
"Jun 29, 2020","1,728.05","1,739.75","1,715.55","1,723.15","1,716.70","11,824,52"
"Jun 26, 2020","1,728.80","1,752.00","1,717.00","1,741.65","1,735.13","14,270,45"
"Jun 25, 2020","1,727.00","1,749.00","1,713.05","1,717.90","1,711.47","18,312,02"
"Jun 24, 2020","1,735.90","1,772.70","1,711.70","1,727.85","1,721.39","23,807,03"
"Jun 23, 2020","1,750.00","1,763.75","1,716.10","1,720.90","1,714.46","17,519,49"
"Jun 22, 2020","1,773.40","1,804.20","1,735.00","1,746.15","1,739.62","27,781,69"
"Jun 19, 2020","1,670.00","1,788.80","1,662.00","1,759.40","1,752.82","48,828,60"
"Jun 18, 2020","1,607.00","1,665.00","1,605.60","1,655.90","1,649.71","18,677,61"
"Jun 17, 2020","1,608.25","1,635.45","1,602.10","1,615.35","1,609.31","19,282,41"
"Jun 16, 2020","1,643.00","1,648.55","1,585.30","1,617.70","1,611.65","23,622,79"
"Jun 15, 2020","1,565.00","1,626.95","1,561.10","1,614.55","1,608.51","24,509,05"
"Jun 12, 2020","1,500.00","1,593.00","1,497.00","1,588.80","1,582.86","17,790,31"
"Jun 11, 2020","1,566.00","1,567.95","1,531.00","1,537.70","1,531.95","9,408,046"
"Jun 10, 2020","1,543.10","1,579.55","1,540.05","1,572.15","1,566.27","10,214,21"
"Jun 09, 2020","1,560.30","1,583.00","1,533.00","1,537.15","1,531.40","11,933,07"
"Jun 08, 2020","1,618.40","1,618.40","1,565.00","1,569.50","1,563.63","14,497,99"
"Jun 05, 2020","1,595.00","1,618.00","1,573.70","1,581.70","1,575.78","15,264,88"
"Jun 04, 2020","1,544.00","1,589.50","1,541.00","1,579.80","1,573.89","15,784,37"
"Jun 03, 2020","1,545.00","1,560.00","1,533.35","1,541.65","1,535.88","11,713,46"
"Jun 02, 2020","1,526.00","1,540.00","1,520.80","1,535.70","1,529.96","10,224,04"
"Jun 01, 2020","1,480.00","1,538.35","1,475.95","1,520.35","1,514.66","18,434,01"
"May 29, 2020","1,468.00","1,472.00","1,452.65","1,464.40","1,458.92","18,470,39"
"May 28, 2020","1,455.00","1,479.75","1,449.00","1,472.25","1,466.74","18,518,27"
